instrument_name,counterparty_name,price,buy_sell,quantity,deal_time
Deuteronic,Lewis,8359.92960508492,S,1,2019-08-14 13:26:12
Eclipse,Lewis,9968.165491215676,B,1,2019-08-14 13:26:21
Lunatic,Lewis,1795.155330683105,S,508,2019-08-14 13:26:38
Interstella,Lewis,3538.10794766475,S,11,2019-08-14 13:26:42
Interstella,Lewis,3497.4038271415398,S,153,2019-08-14 13:26:50
Borealis,Lewis,5809.5756474813525,B,5,2019-08-14 13:26:53
Koronis,Lewis,2419.3263080976812,S,35,2019-08-14 13:26:57
Galactia,Lewis,10079.453035514787,B,13,2019-08-14 13:27:00
Deuteronic,Lewis,8597.375782982725,B,31,2019-08-14 13:27:22
Jupiter,Lewis,3816.3485558058287,B,140,2019-08-14 13:27:33
Deuteronic,Lewis,8477.176834228445,S,3,2019-08-14 13:27:46
Koronis,Lewis,2421.4126648636993,B,4,2019-08-14 13:27:58
Galactia,Lewis,10014.211492901244,S,22,2019-08-14 13:27:59
Interstella,Lewis,3337.4095770029203,B,60,2019-08-14 13:28:17
Deuteronic,Lewis,8305.530518881422,B,17,2019-08-14 13:28:19
Astronomica,Lewis,3555.943928071628,B,551,2019-08-14 13:28:29
Jupiter,Lewis,3879.967292569828,B,261,2019-08-14 13:28:34
Lunatic,Lewis,1941.1995551011855,B,92,2019-08-14 13:28:36
Interstella,Lewis,3392.3188670852965,B,36,2019-08-14 13:28:43
Celestial,Lewis,1409.1271961764471,S,583,2019-08-14 13:28:45
Heliosphere,Lewis,7816.120589529476,S,188,2019-08-14 13:28:52
Astronomica,Lewis,3593.000829886006,S,2,2019-08-14 13:28:57
Interstella,Lewis,3357.8314063373,S,939,2019-08-14 13:28:59
Lunatic,Lewis,1899.9320576593475,B,1,2019-08-14 13:29:06
Floral,Lewis,426.78650426002923,B,28,2019-08-14 13:29:26
Celestial,Selvyn,1411.0079195101428,S,355,2019-08-14 13:26:13
Galactia,Selvyn,9925.512411829755,S,15,2019-08-14 13:26:23
Galactia,Selvyn,10015.491329232664,B,10,2019-08-14 13:26:27
Galactia,Selvyn,9969.49257410463,S,3,2019-08-14 13:26:36
Celestial,Selvyn,1393.7722570083906,B,13,2019-08-14 13:26:37
Borealis,Selvyn,5756.494311108006,S,22,2019-08-14 13:26:43
Deuteronic,Selvyn,8503.914140326233,B,27,2019-08-14 13:26:52
Borealis,Selvyn,5933.361451974879,B,67,2019-08-14 13:26:56
Astronomica,Selvyn,3515.7619307496784,B,164,2019-08-14 13:26:59
Galactia,Selvyn,10057.77819958829,S,3,2019-08-14 13:27:09
Koronis,Selvyn,2445.294702750249,B,79,2019-08-14 13:27:17
Interstella,Selvyn,3418.16094607153,S,29,2019-08-14 13:27:19
Borealis,Selvyn,6054.489978773983,B,44,2019-08-14 13:27:34
Heliosphere,Selvyn,7893.444258704334,S,769,2019-08-14 13:27:36
Jupiter,Selvyn,3798.9649606766475,S,5,2019-08-14 13:27:38
Lunatic,Selvyn,1902.0001773372137,B,71,2019-08-14 13:27:44
Galactia,Selvyn,10129.812850662718,B,45,2019-08-14 13:27:49
Lunatic,Selvyn,1902.3686218242563,B,85,2019-08-14 13:27:57
Jupiter,Selvyn,3891.302293963901,B,16,2019-08-14 13:28:03
Heliosphere,Selvyn,7960.492919739555,B,12,2019-08-14 13:28:11
Jupiter,Selvyn,3859.2653483486984,S,11,2019-08-14 13:28:15
Jupiter,Selvyn,3832.8712516384253,S,154,2019-08-14 13:28:21
Lunatic,Selvyn,1926.621411943137,B,65,2019-08-14 13:28:22
Deuteronic,Selvyn,8188.082369589777,S,3,2019-08-14 13:28:23
Interstella,Selvyn,3363.5439239773755,B,662,2019-08-14 13:28:38
Eclipse,Selvyn,9754.575763826251,S,764,2019-08-14 13:28:41
Eclipse,Selvyn,9633.681682330136,S,1,2019-08-14 13:28:42
Koronis,Selvyn,2394.6592129850646,S,4,2019-08-14 13:28:49
Celestial,Selvyn,1426.1408075152092,B,439,2019-08-14 13:29:05
Heliosphere,Selvyn,7644.79220388795,S,271,2019-08-14 13:29:08
Eclipse,Selvyn,9618.736072445761,S,6,2019-08-14 13:29:22
Lunatic,Selvyn,1912.2927504421061,S,26,2019-08-14 13:29:25
Heliosphere,Richard,7740.166837691259,S,85,2019-08-14 13:26:00
Heliosphere,Richard,7808.837048802093,B,39,2019-08-14 13:26:06
Celestial,Richard,1423.5726764503095,S,6,2019-08-14 13:26:09
Interstella,Richard,3596.9591614994765,B,7,2019-08-14 13:26:14
Deuteronic,Richard,8406.853080870393,B,5,2019-08-14 13:26:15
Galactia,Richard,10139.75929953012,B,43,2019-08-14 13:26:16
Astronomica,Richard,3443.6700636061064,B,291,2019-08-14 13:26:17
Celestial,Richard,1385.3595828622017,S,27,2019-08-14 13:26:18
Galactia,Richard,10041.022358100125,S,790,2019-08-14 13:26:20
Lunatic,Richard,1808.9550094397034,S,3,2019-08-14 13:26:22
Lunatic,Richard,1818.0692693118535,B,2,2019-08-14 13:26:28
Jupiter,Richard,3641.9644870245274,B,31,2019-08-14 13:26:30
Interstella,Richard,3541.266620842343,S,25,2019-08-14 13:26:31
Heliosphere,Richard,7878.119441508068,B,600,2019-08-14 13:26:49
Floral,Richard,400.16568735353076,S,5,2019-08-14 13:26:51
Borealis,Richard,5879.176826035867,B,924,2019-08-14 13:26:54
Borealis,Richard,5993.2966435198105,B,9,2019-08-14 13:27:07
Borealis,Richard,6062.955436782466,B,88,2019-08-14 13:27:12
Borealis,Richard,6117.925639050285,B,21,2019-08-14 13:27:13
Eclipse,Richard,9636.2884681417,S,98,2019-08-14 13:27:20
Astronomica,Richard,3519.223819623834,S,7,2019-08-14 13:27:27
Astronomica,Richard,3557.1969943599383,B,797,2019-08-14 13:27:28
Eclipse,Richard,9794.873013790158,B,170,2019-08-14 13:27:31
Koronis,Richard,2420.950503879987,S,90,2019-08-14 13:27:39
Floral,Richard,413.2095076965491,B,520,2019-08-14 13:27:55
Interstella,Richard,3392.3565494833315,B,10,2019-08-14 13:27:56
Astronomica,Richard,3520.38443468003,S,227,2019-08-14 13:28:09
Deuteronic,Richard,8257.191852736985,S,44,2019-08-14 13:28:12
Koronis,Richard,2445.177437664277,B,33,2019-08-14 13:28:16
Heliosphere,Richard,7890.9735970545735,S,5,2019-08-14 13:28:25
Lunatic,Richard,1916.8951374940757,S,14,2019-08-14 13:28:26
Astronomica,Richard,3594.3307334773917,B,658,2019-08-14 13:28:32
Jupiter,Richard,3938.79478569553,B,220,2019-08-14 13:28:40
Lunatic,Richard,1914.8784344312262,S,557,2019-08-14 13:28:44
Koronis,Richard,2422.649203311236,B,142,2019-08-14 13:28:50
Jupiter,Richard,3907.323489796815,S,3,2019-08-14 13:28:54
Borealis,Richard,6035.224164707528,S,5,2019-08-14 13:29:12
Astronomica,Richard,3603.0690969317416,B,3,2019-08-14 13:29:15
Jupiter,Richard,4009.7783582837656,B,37,2019-08-14 13:29:17
Koronis,Lina,2487.9387118318837,B,35,2019-08-14 13:26:01
Borealis,Lina,5869.2105514787145,B,250,2019-08-14 13:26:02
Eclipse,Lina,9866.507405086097,S,34,2019-08-14 13:26:03
Interstella,Lina,3573.786886517323,B,15,2019-08-14 13:26:05
Interstella,Lina,3631.4817878391023,B,2,2019-08-14 13:26:24
Floral,Lina,401.3492834216478,B,629,2019-08-14 13:26:29
Galactia,Lina,10090.466821310412,B,3,2019-08-14 13:26:32
Eclipse,Lina,9858.293317791882,S,397,2019-08-14 13:26:45
Lunatic,Lina,1815.3169739639304,B,21,2019-08-14 13:26:46
Heliosphere,Lina,7960.624464810348,B,5,2019-08-14 13:26:58
Lunatic,Lina,1841.7845086410618,B,6,2019-08-14 13:27:03
Jupiter,Lina,3672.27279121574,S,851,2019-08-14 13:27:06
Galactia,Lina,10162.660423293473,B,8,2019-08-14 13:27:08
Interstella,Lina,3460.280994248457,S,51,2019-08-14 13:27:16
Deuteronic,Lina,8550.597235313038,B,1,2019-08-14 13:27:21
Borealis,Lina,5996.290163250512,S,2,2019-08-14 13:27:24
Lunatic,Lina,1884.0426278013458,B,1,2019-08-14 13:27:41
Astronomica,Lina,3522.129255588236,S,856,2019-08-14 13:27:42
Celestial,Lina,1402.3858009052008,B,286,2019-08-14 13:27:51
Koronis,Lina,2397.5274757329744,S,14,2019-08-14 13:27:53
Celestial,Lina,1411.1980881788866,B,755,2019-08-14 13:28:02
Lunatic,Lina,1922.9556320913696,B,1,2019-08-14 13:28:18
Koronis,Lina,2423.470043344623,S,2,2019-08-14 13:28:28
Celestial,Lina,1426.0256024559822,B,79,2019-08-14 13:28:35
Lunatic,Lina,1898.29570178492,B,2,2019-08-14 13:28:48
Borealis,Lina,6096.081544192988,B,1,2019-08-14 13:28:53
Astronomica,Lina,3629.5250622005756,B,5,2019-08-14 13:28:56
Galactia,Lina,9792.988476406597,S,73,2019-08-14 13:28:58
Eclipse,Lina,9717.778186784062,B,21,2019-08-14 13:29:00
Celestial,Lina,1431.343319594934,B,120,2019-08-14 13:29:09
Lunatic,Lina,1933.4501379977055,B,84,2019-08-14 13:29:20
Floral,Lina,415.2923894335144,S,455,2019-08-14 13:29:21
Koronis,Lina,2413.227157971985,S,113,2019-08-14 13:29:24
Jupiter,John,3599.324167778588,B,47,2019-08-14 13:25:59
Koronis,John,2466.0142741828245,S,4,2019-08-14 13:26:07
Astronomica,John,3481.7733992302005,B,24,2019-08-14 13:26:44
Astronomica,John,3552.3871107374116,B,1,2019-08-14 13:27:02
Eclipse,John,9740.724825905278,S,403,2019-08-14 13:27:04
Floral,John,404.4602048720729,B,14,2019-08-14 13:27:05
Jupiter,John,3718.6896264668057,B,395,2019-08-14 13:27:14
Borealis,John,6054.40562916404,S,183,2019-08-14 13:27:15
Jupiter,John,3763.6505792825565,B,125,2019-08-14 13:27:25
Lunatic,John,1855.3984898307635,B,2,2019-08-14 13:27:30
Eclipse,John,9870.366990192853,B,5,2019-08-14 13:27:32
Astronomica,John,3556.0137759125946,B,268,2019-08-14 13:27:43
Borealis,John,5921.3030405198215,S,164,2019-08-14 13:27:45
Deuteronic,John,8365.460529255513,S,2,2019-08-14 13:27:50
Interstella,John,3370.1560187071764,S,249,2019-08-14 13:27:52
Galactia,John,9904.847548426516,S,97,2019-08-14 13:28:01
Floral,John,409.0854955081919,S,24,2019-08-14 13:28:07
Celestial,John,1417.5233208844293,B,1,2019-08-14 13:28:14
Lunatic,John,1925.2437890808624,B,99,2019-08-14 13:28:31
Deuteronic,John,8237.17212611704,B,1,2019-08-14 13:28:37
Lunatic,John,1889.5743691857485,S,568,2019-08-14 13:28:46
Astronomica,John,3558.7187593279596,S,24,2019-08-14 13:29:01
Astronomica,John,3564.9286397121023,B,175,2019-08-14 13:29:11
Lunatic,John,1922.350304297668,B,27,2019-08-14 13:29:14
Astronomica,John,3564.1832478828874,S,12,2019-08-14 13:29:16
Koronis,John,2444.918789607558,B,2,2019-08-14 13:29:19
Borealis,Nidia,5820.850158161896,B,70,2019-08-14 13:25:58
Lunatic,Nidia,1818.1455207668791,S,2,2019-08-14 13:26:08
Astronomica,Nidia,3405.2907882808836,S,62,2019-08-14 13:26:10
Interstella,Nidia,3581.7133494063883,S,644,2019-08-14 13:26:25
Deuteronic,Nidia,8462.687814070818,B,33,2019-08-14 13:26:34
Borealis,Nidia,5812.904429424972,S,94,2019-08-14 13:26:35
Jupiter,Nidia,3692.1635166496276,B,1,2019-08-14 13:26:39
Interstella,Nidia,3574.7265348831984,B,99,2019-08-14 13:26:40
Koronis,Nidia,2443.324376497685,S,178,2019-08-14 13:26:48
Galactia,Nidia,9947.83495653778,S,23,2019-08-14 13:27:11
Eclipse,Nidia,9718.32059636449,B,598,2019-08-14 13:27:23
Galactia,Nidia,10048.1851841718,B,161,2019-08-14 13:27:29
Borealis,Nidia,5994.171008960252,S,7,2019-08-14 13:27:37
Jupiter,Nidia,3847.3360133066035,B,178,2019-08-14 13:27:48
Floral,Nidia,411.15803501811644,S,2,2019-08-14 13:28:04
Interstella,Nidia,3352.1099228798485,S,201,2019-08-14 13:28:06
Borealis,Nidia,5979.444664258797,B,5,2019-08-14 13:28:08
Interstella,Nidia,3310.0763840407744,S,2,2019-08-14 13:28:10
Floral,Nidia,416.93585557261736,B,1,2019-08-14 13:28:24
Borealis,Nidia,6029.823153424667,B,252,2019-08-14 13:28:30
Celestial,Nidia,1419.985038624294,B,126,2019-08-14 13:28:51
Jupiter,Nidia,3956.9044985371347,B,11,2019-08-14 13:29:02
Astronomica,Nidia,3529.629130405624,S,2,2019-08-14 13:29:04
Heliosphere,Nidia,7723.010457539339,S,76,2019-08-14 13:29:07
Celestial,Nidia,1436.8636735859486,B,3,2019-08-14 13:29:13
